module github.com/containers/buildah

// Warning: Ensure the "go" and "toolchain" versions match exactly to prevent unwanted auto-updates

go 1.22.8

require (
	github.com/containerd/platforms v1.0.0-rc.1
	github.com/containernetworking/cni v1.2.3
	github.com/containers/common v0.62.0
	github.com/containers/image/v5 v5.34.0
	github.com/containers/luksy v0.0.0-20250106202729-a3a812db5b72
	github.com/containers/ocicrypt v1.2.1
	github.com/containers/storage v1.57.1
	github.com/cyphar/filepath-securejoin v0.3.6
	github.com/docker/distribution v2.8.3+incompatible
	github.com/docker/docker v27.5.1+incompatible
	github.com/docker/go-connections v0.5.0
	github.com/docker/go-units v0.5.0
	github.com/fsouza/go-dockerclient v1.12.0
	github.com/hashicorp/go-multierror v1.1.1
	github.com/mattn/go-shellwords v1.0.12
	github.com/moby/buildkit v0.19.0
	github.com/moby/sys/capability v0.4.0
	github.com/moby/sys/userns v0.1.0
	github.com/opencontainers/go-digest v1.0.0
	github.com/opencontainers/image-spec v1.1.0
	github.com/opencontainers/runc v1.2.4
	github.com/opencontainers/runtime-spec v1.2.0
	github.com/opencontainers/runtime-tools v0.9.1-0.20241108202711-f7e3563b0271
	github.com/opencontainers/selinux v1.11.1
	github.com/openshift/imagebuilder v1.2.15
	github.com/seccomp/libseccomp-golang v0.10.0
	github.com/sirupsen/logrus v1.9.3
	github.com/spf13/cobra v1.8.1
	github.com/spf13/pflag v1.0.6
	github.com/stretchr/testify v1.10.0
	go.etcd.io/bbolt v1.3.11
	golang.org/x/crypto v0.32.0
	golang.org/x/sync v0.10.0
	golang.org/x/sys v0.29.0
	golang.org/x/term v0.28.0
	sigs.k8s.io/yaml v1.4.0
	tags.cncf.io/container-device-interface v0.8.0
)

require (
	dario.cat/mergo v1.0.1 // indirect
	github.com/Azure/go-ansiterm v0.0.0-20230124172434-306776ec8161 // indirect
	github.com/BurntSushi/toml v1.4.0 // indirect
	github.com/Microsoft/go-winio v0.6.2 // indirect
	github.com/Microsoft/hcsshim v0.12.9 // indirect
	github.com/VividCortex/ewma v1.2.0 // indirect
	github.com/acarl005/stripansi v0.0.0-20180116102854-5a71ef0e047d // indirect
	github.com/aead/serpent v0.0.0-20160714141033-fba169763ea6 // indirect
	github.com/asaskevich/govalidator v0.0.0-20230301143203-a9d515a09cc2 // indirect
	github.com/chzyer/readline v1.5.1 // indirect
	github.com/containerd/cgroups/v3 v3.0.3 // indirect
	github.com/containerd/errdefs v1.0.0 // indirect
	github.com/containerd/errdefs/pkg v0.3.0 // indirect
	github.com/containerd/log v0.1.0 // indirect
	github.com/containerd/stargz-snapshotter/estargz v0.16.3 // indirect
	github.com/containerd/typeurl/v2 v2.2.3 // indirect
	github.com/containernetworking/plugins v1.5.1 // indirect
	github.com/containers/libtrust v0.0.0-20230121012942-c1716e8a8d01 // indirect
	github.com/coreos/go-systemd/v22 v22.5.0 // indirect
	github.com/cyberphone/json-canonicalization v0.0.0-20231217050601-ba74d44ecf5f // indirect
	github.com/davecgh/go-spew v1.1.2-0.20180830191138-d8f796af33cc // indirect
	github.com/disiqueira/gotree/v3 v3.0.2 // indirect
	github.com/distribution/reference v0.6.0 // indirect
	github.com/docker/docker-credential-helpers v0.8.2 // indirect
	github.com/felixge/httpsnoop v1.0.4 // indirect
	github.com/fsnotify/fsnotify v1.8.0 // indirect
	github.com/go-jose/go-jose/v4 v4.0.4 // indirect
	github.com/go-logr/logr v1.4.2 // indirect
	github.com/go-logr/stdr v1.2.2 // indirect
	github.com/go-openapi/analysis v0.23.0 // indirect
	github.com/go-openapi/errors v0.22.0 // indirect
	github.com/go-openapi/jsonpointer v0.21.0 // indirect
	github.com/go-openapi/jsonreference v0.21.0 // indirect
	github.com/go-openapi/loads v0.22.0 // indirect
	github.com/go-openapi/runtime v0.28.0 // indirect
	github.com/go-openapi/spec v0.21.0 // indirect
	github.com/go-openapi/strfmt v0.23.0 // indirect
	github.com/go-openapi/swag v0.23.0 // indirect
	github.com/go-openapi/validate v0.24.0 // indirect
	github.com/godbus/dbus/v5 v5.1.0 // indirect
	github.com/gogo/protobuf v1.3.2 // indirect
	github.com/golang/groupcache v0.0.0-20210331224755-41bb18bfe9da // indirect
	github.com/golang/protobuf v1.5.4 // indirect
	github.com/google/go-containerregistry v0.20.2 // indirect
	github.com/google/go-intervals v0.0.2 // indirect
	github.com/google/uuid v1.6.0 // indirect
	github.com/gorilla/mux v1.8.1 // indirect
	github.com/hashicorp/errwrap v1.1.0 // indirect
	github.com/inconshreveable/mousetrap v1.1.0 // indirect
	github.com/jinzhu/copier v0.4.0 // indirect
	github.com/josharian/intern v1.0.0 // indirect
	github.com/json-iterator/go v1.1.12 // indirect
	github.com/klauspost/compress v1.17.11 // indirect
	github.com/klauspost/pgzip v1.2.6 // indirect
	github.com/letsencrypt/boulder v0.0.0-20240620165639-de9c06129bec // indirect
	github.com/mailru/easyjson v0.7.7 // indirect
	github.com/manifoldco/promptui v0.9.0 // indirect
	github.com/mattn/go-runewidth v0.0.16 // indirect
	github.com/mattn/go-sqlite3 v1.14.24 // indirect
	github.com/miekg/pkcs11 v1.1.1 // indirect
	github.com/mistifyio/go-zfs/v3 v3.0.1 // indirect
	github.com/mitchellh/mapstructure v1.5.0 // indirect
	github.com/moby/docker-image-spec v1.3.1 // indirect
	github.com/moby/patternmatcher v0.6.0 // indirect
	github.com/moby/sys/mountinfo v0.7.2 // indirect
	github.com/moby/sys/sequential v0.6.0 // indirect
	github.com/moby/sys/user v0.3.0 // indirect
	github.com/moby/term v0.5.0 // indirect
	github.com/modern-go/concurrent v0.0.0-20180306012644-bacd9c7ef1dd // indirect
	github.com/modern-go/reflect2 v1.0.2 // indirect
	github.com/morikuni/aec v1.0.0 // indirect
	github.com/oklog/ulid v1.3.1 // indirect
	github.com/ostreedev/ostree-go v0.0.0-20210805093236-719684c64e4f // indirect
	github.com/pkg/errors v0.9.1 // indirect
	github.com/planetscale/vtprotobuf v0.6.1-0.20240319094008-0393e58bdf10 // indirect
	github.com/pmezard/go-difflib v1.0.1-0.20181226105442-5d4384ee4fb2 // indirect
	github.com/proglottis/gpgme v0.1.4 // indirect
	github.com/rivo/uniseg v0.4.7 // indirect
	github.com/secure-systems-lab/go-securesystemslib v0.9.0 // indirect
	github.com/sigstore/fulcio v1.6.4 // indirect
	github.com/sigstore/rekor v1.3.8 // indirect
	github.com/sigstore/sigstore v1.8.12 // indirect
	github.com/smallstep/pkcs7 v0.1.1 // indirect
	github.com/stefanberger/go-pkcs11uri v0.0.0-20230803200340-78284954bff6 // indirect
	github.com/sylabs/sif/v2 v2.20.2 // indirect
	github.com/syndtr/gocapability v0.0.0-20200815063812-42c35b437635 // indirect
	github.com/tchap/go-patricia/v2 v2.3.2 // indirect
	github.com/titanous/rocacheck v0.0.0-20171023193734-afe73141d399 // indirect
	github.com/ulikunitz/xz v0.5.12 // indirect
	github.com/vbatts/tar-split v0.11.7 // indirect
	github.com/vbauerster/mpb/v8 v8.9.1 // indirect
	github.com/vishvananda/netlink v1.3.1-0.20240922070040-084abd93d350 // indirect
	github.com/vishvananda/netns v0.0.4 // indirect
	go.mongodb.org/mongo-driver v1.14.0 // indirect
	go.opencensus.io v0.24.0 // indirect
	go.opentelemetry.io/contrib/instrumentation/net/http/otelhttp v0.56.0 // indirect
	go.opentelemetry.io/otel v1.31.0 // indirect
	go.opentelemetry.io/otel/metric v1.31.0 // indirect
	go.opentelemetry.io/otel/trace v1.31.0 // indirect
	golang.org/x/exp v0.0.0-20250103183323-7d7fa50e5329 // indirect
	golang.org/x/mod v0.22.0 // indirect
	golang.org/x/net v0.34.0 // indirect
	golang.org/x/text v0.21.0 // indirect
	google.golang.org/genproto/googleapis/rpc v0.0.0-20250102185135-69823020774d // indirect
	google.golang.org/grpc v1.69.4 // indirect
	google.golang.org/protobuf v1.36.2 // indirect
	gopkg.in/yaml.v3 v3.0.1 // indirect
	k8s.io/klog v1.0.0 // indirect
	tags.cncf.io/container-device-interface/specs-go v0.8.0 // indirect
)
